{
  "title": "My Projects",
  "content": [
    {
      "id": 1,
      "title": "Weather",
      "tags": ["Javascript", "HTML", "CSS"],
      "image": "../images/screenshots/weather.png",
      "description": "This app allows you to search for a country in the search bar (which uses debounce) and it will give you the next five days forecast",
      "gitRepository": "https://gitlab.com/luzpm1102/week-2",
      "deployedWeb": "https://week-2-lcpm.vercel.app/"
    },
    {
      "id": 2,
      "title": "Marvel Info",
      "tags": ["TypeScript", "ReactJS", "Sass"],
      "image": "../images/screenshots/marvel.png",
      "description": "This is an Informative page about marvel comics, series, characters and stories, it will give you every related item",
      "gitRepository": "https://gitlab.com/luzpm1102/week-8",
      "deployedWeb": "https://week-8-lcpm.vercel.app/"
    },
    {
      "id": 3,
      "title": "Game Store",
      "tags": ["TypeScript", "ReactJS", "Sass"],
      "image": "../images/screenshots/gamestore.png",
      "description": "In this website you will find some games and its info like description, image and price, the information its from a fake API",
      "gitRepository": "https://gitlab.com/luzpm1102/week-6",
      "deployedWeb": "https://week-6-lcpm.vercel.app/"
    },
    {
      "id": 4,
      "title": "Blog",
      "tags": ["Javascript", "CSS"],
      "image": "../images/screenshots/blog.png",
      "description": "This is a blog build with HTML and CSS about characters from Nintendo world, you can do the crud for the entries",
      "gitRepository": "https://gitlab.com/luzpm1102/week-3",
      "deployedWeb": "https://week-3-lcpm.vercel.app/"
    },
    {
      "id": 5,
      "title": "TicTacToe",
      "tags": ["ReactJS", "TypeScript", "Sass"],
      "image": "../images/screenshots/tictactoe.png",
      "description": "This website has two games, 1.TicTacToe 2.Time machine both of them keep records of every movement the user do",
      "gitRepository": "https://gitlab.com/luzpm1102/week-7",
      "deployedWeb": "https://week-7-lcpm.vercel.app/"
    },
    {
      "id": 6,
      "title": "Portfolio",
      "tags": ["Gatsby", "Tailwind", "TypeScript"],
      "image": "../images/screenshots/portfolio.png",
      "description": "This projects is my portfolio, has info about my education, experience, projects and how to contact me, also has a detail for each project",
      "gitRepository": "https://gitlab.com/luzpm1102/week-10",
      "deployedWeb": ""
    }
  ]
}
